[
    {
        "model": "blender_fund_main.membershiplevel",
        "pk": 1,
        "fields": {
            "category": "INDIV",
            "name": "Bronze",
            "visible_attributes": "",
            "is_visible": false,
            "details_html": "",
            "image": "membershiplevels/badge_devfund_bronze.png",
            "bid_badge_name": "devfund_bronze",
            "order": 1,
            "plan": 1,
            "is_popular": false
        }
    },
    {
        "model": "blender_fund_main.membershiplevel",
        "pk": 2,
        "fields": {
            "category": "INDIV",
            "name": "Silver",
            "visible_attributes": "",
            "is_visible": false,
            "details_html": "",
            "image": "membershiplevels/badge_devfund_silver.png",
            "bid_badge_name": "devfund_silver",
            "order": 2,
            "plan": 2,
            "is_popular": false
        }
    },
    {
        "model": "blender_fund_main.membershiplevel",
        "pk": 3,
        "fields": {
            "category": "INDIV",
            "name": "Gold",
            "visible_attributes": "display_name",
            "is_visible": true,
            "details_html": "",
            "image": "membershiplevels/badge_devfund_gold.png",
            "bid_badge_name": "devfund_gold",
            "order": 3,
            "plan": 3,
            "is_popular": false
        }
    },
    {
        "model": "blender_fund_main.membershiplevel",
        "pk": 4,
        "fields": {
            "category": "INDIV",
            "name": "Platinum",
            "visible_attributes": "display_name",
            "is_visible": true,
            "details_html": "",
            "image": "membershiplevels/badge_devfund_platinum.png",
            "bid_badge_name": "devfund_platinum",
            "order": 4,
            "plan": 4,
            "is_popular": false
        }
    },
    {
        "model": "blender_fund_main.membershiplevel",
        "pk": 5,
        "fields": {
            "category": "INDIV",
            "name": "Titanium",
            "visible_attributes": "display_name, url",
            "is_visible": true,
            "details_html": "",
            "image": "membershiplevels/badge_devfund_titanium.png",
            "bid_badge_name": "devfund_titanium",
            "order": 5,
            "plan": 5,
            "is_popular": false
        }
    },
    {
        "model": "blender_fund_main.membershiplevel",
        "pk": 6,
        "fields": {
            "category": "INDIV",
            "name": "Diamond",
            "visible_attributes": "display_name, url",
            "is_visible": true,
            "details_html": "",
            "image": "membershiplevels/badge_devfund_diamond.png",
            "bid_badge_name": "devfund_diamond",
            "order": 6,
            "plan": 6,
            "is_popular": false
        }
    },
    {
        "model": "blender_fund_main.membershiplevel",
        "pk": 7,
        "fields": {
            "category": "CORP",
            "name": "Corporate_Bronze",
            "visible_attributes": "display_name, url, logo",
            "is_visible": true,
            "details_html": "",
            "image": "",
            "bid_badge_name": "",
            "order": 7,
            "plan": 7,
            "is_popular": false
        }
    },
    {
        "model": "blender_fund_main.membershiplevel",
        "pk": 8,
        "fields": {
            "category": "CORP",
            "name": "Corporate_Silver",
            "visible_attributes": "display_name, url, logo",
            "is_visible": true,
            "details_html": "",
            "image": "",
            "bid_badge_name": "",
            "order": 8,
            "plan": 8,
            "is_popular": false
        }
    },
    {
        "model": "blender_fund_main.membershiplevel",
        "pk": 9,
        "fields": {
            "category": "CORP",
            "name": "Corporate_Gold",
            "visible_attributes": "display_name, url, logo",
            "is_visible": true,
            "details_html": "",
            "image": "",
            "bid_badge_name": "",
            "order": 9,
            "plan": 9,
            "is_popular": false
        }
    },
    {
        "model": "blender_fund_main.membershiplevel",
        "pk": 10,
        "fields": {
            "category": "CORP",
            "name": "Patron",
            "visible_attributes": "display_name, url, logo",
            "is_visible": true,
            "details_html": "",
            "image": "",
            "bid_badge_name": "",
            "order": 10,
            "plan": 10,
            "is_popular": false
        }
    }
]
